[{
  "Label": "Dashboard Technicien"
},
{
  "Label": "Dashboard Biologiste"
},
{
  "Label": "Examens en cours"
},
{
  "Label": "Créer une liste de travail"
},
{
  "Label": "Ajouter examens(s) à la liste"
},
{
  "Label": "Retirer examens(s) à la liste"
},
{
  "Label": "Valider ?"
},
{
  "Label": "OUI"
},
{
  "Label": "NON"
},
{
  "Label": "PEUT ETRE"
},
{
  "Label": "créer liste de travail"
},
{
  "Label": "Validation technique"
},
{
  "Label": "Validation biologique"
},
{
  "Label": "Listes de travail existantes"
},
{
  "Label": "Examen en attente de validation"
},
{
  "Label": "Importer examen à partir du LMT"
},
{
  "Label": "Rechercher un examen"
},
{
  "Label": "Examens URGENT"
},
{
  "Label": "Logout"
},
{
  "Label": "Formulaires associés"
},
{
  "Label": "Envoi pour validation biologique (routine)"
},
{
  "Label": "Alerte pour validation biologique (URGENT)"
},
{
  "Label": "Par mail"
},
{
  "Label": "Par SMS"
},
{
  "Label": "Par coup de pieds au fesses"
}]
